M48
;Layer_Color=6321
;FILE_FORMAT=4:3
METRIC,TZ
;TYPE=PLATED
T1F00S00C0.400
;TYPE=NON_PLATED
T2F00S00C1.500
%
T01
X80550Y51650
X91800Y55900
X79050Y51650
X77550
X76050
X74550
X73050
X71550
X70050
X58800Y55900
X56300Y85400
X67700Y91850
Y94350
X82700Y91850
X82700Y97350
Y99850
X88300Y85400
X93500Y109200
X86730Y129510
X84190
X81650
X79110
X76570
X74030
X71490
X68950
X66410
X63870
X71490Y125000
X74030Y125010
X76570Y125000
X79110
T02
X95400Y57400
X55200Y57400
X55200Y98100
X95400Y98100
Y128100
X55200
M30
