G04 Layer_Physical_Order=1*
G04 Layer_Color=25308*
%FSLAX43Y43*%
%MOMM*%
G71*
G01*
G75*
%ADD10C,10.000*%
%ADD11O,10.000X25.000*%
%ADD12C,0.250*%
%ADD13C,1.270*%
%ADD14C,1.200*%
G36*
X55925Y135873D02*
X55733Y135840D01*
X54878Y135594D01*
X54055Y135253D01*
X53276Y134823D01*
X52550Y134307D01*
X51886Y133714D01*
X51293Y133050D01*
X50777Y132324D01*
X50347Y131545D01*
X50006Y130722D01*
X49760Y129867D01*
X49635Y129133D01*
X49508Y129144D01*
X49500Y135910D01*
X49590Y136000D01*
X55914D01*
X55925Y135873D01*
D02*
G37*
G36*
X57500Y135165D02*
X93100D01*
X93127Y135170D01*
X93892Y135127D01*
X94674Y134994D01*
X95436Y134775D01*
X96168Y134471D01*
X96862Y134088D01*
X97509Y133629D01*
X98100Y133100D01*
X98629Y132509D01*
X99088Y131862D01*
X99471Y131168D01*
X99775Y130436D01*
X99994Y129674D01*
X100127Y128892D01*
X100164Y128227D01*
X100165Y128100D01*
D01*
X100165Y127974D01*
Y57627D01*
Y57625D01*
X100165Y57500D01*
D01*
X100164Y57375D01*
X100164Y57373D01*
X100127Y56708D01*
X99994Y55926D01*
X99775Y55164D01*
X99471Y54432D01*
X99088Y53738D01*
X98629Y53091D01*
X98100Y52500D01*
X97509Y51971D01*
X96862Y51512D01*
X96168Y51129D01*
X95436Y50825D01*
X94674Y50606D01*
X93892Y50473D01*
X93127Y50430D01*
X93100Y50435D01*
X81914D01*
X81865Y50553D01*
X86779Y55467D01*
X90967D01*
X90983Y55429D01*
X91133Y55233D01*
X91328Y55083D01*
X91556Y54989D01*
X91800Y54957D01*
X92044Y54989D01*
X92272Y55083D01*
X92467Y55233D01*
X92617Y55429D01*
X92711Y55656D01*
X92743Y55900D01*
X92711Y56144D01*
X92617Y56372D01*
X92467Y56567D01*
X92272Y56717D01*
X92044Y56811D01*
X91800Y56843D01*
X91556Y56811D01*
X91328Y56717D01*
X91133Y56567D01*
X90983Y56372D01*
X90967Y56333D01*
X86600D01*
X86434Y56300D01*
X86294Y56206D01*
X81563Y51476D01*
X81443Y51535D01*
X81458Y51650D01*
X81427Y51885D01*
X81336Y52104D01*
X81192Y52292D01*
X81004Y52436D01*
X80983Y52445D01*
Y52971D01*
X86871Y58858D01*
X87067Y58686D01*
X87644Y58300D01*
X88267Y57993D01*
X88925Y57770D01*
X89607Y57634D01*
X90300Y57589D01*
X90993Y57634D01*
X91675Y57770D01*
X92333Y57993D01*
X92956Y58300D01*
X93533Y58686D01*
X94056Y59144D01*
X94514Y59667D01*
X94900Y60244D01*
X95207Y60867D01*
X95430Y61525D01*
X95566Y62207D01*
X95611Y62900D01*
X95566Y63593D01*
X95430Y64275D01*
X95207Y64933D01*
X94900Y65556D01*
X94514Y66133D01*
X94056Y66656D01*
X93533Y67114D01*
X92956Y67500D01*
X92333Y67807D01*
X91675Y68030D01*
X90993Y68166D01*
X90300Y68211D01*
X89607Y68166D01*
X88925Y68030D01*
X88267Y67807D01*
X87644Y67500D01*
X87067Y67114D01*
X86544Y66656D01*
X86086Y66133D01*
X85700Y65556D01*
X85393Y64933D01*
X85170Y64275D01*
X85034Y63593D01*
X84989Y62900D01*
X85034Y62207D01*
X85170Y61525D01*
X85393Y60867D01*
X85700Y60244D01*
X86086Y59667D01*
X86258Y59471D01*
X80244Y53456D01*
X80150Y53316D01*
X80117Y53150D01*
Y52445D01*
X80096Y52436D01*
X79908Y52292D01*
X79863Y52234D01*
X79736D01*
X79692Y52292D01*
X79504Y52436D01*
X79483Y52445D01*
Y52971D01*
X84356Y57844D01*
X84450Y57984D01*
X84483Y58150D01*
Y71471D01*
X86871Y73858D01*
X87067Y73686D01*
X87644Y73300D01*
X88267Y72993D01*
X88925Y72770D01*
X89607Y72634D01*
X90300Y72589D01*
X90993Y72634D01*
X91675Y72770D01*
X92333Y72993D01*
X92956Y73300D01*
X93533Y73686D01*
X94056Y74144D01*
X94514Y74667D01*
X94900Y75244D01*
X95207Y75867D01*
X95430Y76525D01*
X95566Y77207D01*
X95611Y77900D01*
X95566Y78593D01*
X95430Y79275D01*
X95207Y79933D01*
X94900Y80556D01*
X94514Y81133D01*
X94056Y81656D01*
X93533Y82114D01*
X92956Y82500D01*
X92333Y82807D01*
X91675Y83030D01*
X90993Y83166D01*
X90300Y83211D01*
X89607Y83166D01*
X88925Y83030D01*
X88267Y82807D01*
X87644Y82500D01*
X87067Y82114D01*
X86544Y81656D01*
X86086Y81133D01*
X85700Y80556D01*
X85393Y79933D01*
X85170Y79275D01*
X85034Y78593D01*
X84989Y77900D01*
X85034Y77207D01*
X85170Y76525D01*
X85393Y75867D01*
X85700Y75244D01*
X86086Y74667D01*
X86258Y74471D01*
X83744Y71956D01*
X83650Y71816D01*
X83617Y71650D01*
Y58329D01*
X78744Y53456D01*
X78650Y53316D01*
X78617Y53150D01*
Y52445D01*
X78596Y52436D01*
X78408Y52292D01*
X78364Y52234D01*
X78237D01*
X78192Y52292D01*
X78004Y52436D01*
X77983Y52445D01*
Y52971D01*
X83106Y58094D01*
X83163Y58178D01*
X83200Y58234D01*
X83233Y58400D01*
Y85221D01*
X86871Y88858D01*
X87067Y88686D01*
X87644Y88300D01*
X88267Y87993D01*
X88925Y87770D01*
X89607Y87634D01*
X90300Y87589D01*
X90993Y87634D01*
X91675Y87770D01*
X92333Y87993D01*
X92956Y88300D01*
X93533Y88686D01*
X94056Y89144D01*
X94514Y89667D01*
X94900Y90244D01*
X95207Y90867D01*
X95430Y91525D01*
X95566Y92207D01*
X95611Y92900D01*
X95566Y93593D01*
X95430Y94275D01*
X95207Y94933D01*
X94900Y95556D01*
X94514Y96133D01*
X94056Y96656D01*
X93533Y97114D01*
X92956Y97500D01*
X92333Y97807D01*
X91675Y98030D01*
X90993Y98166D01*
X90300Y98211D01*
X89607Y98166D01*
X88925Y98030D01*
X88267Y97807D01*
X87644Y97500D01*
X87067Y97114D01*
X86544Y96656D01*
X86086Y96133D01*
X85700Y95556D01*
X85393Y94933D01*
X85170Y94275D01*
X85034Y93593D01*
X84989Y92900D01*
X85034Y92207D01*
X85170Y91525D01*
X85393Y90867D01*
X85700Y90244D01*
X86086Y89667D01*
X86258Y89471D01*
X82494Y85706D01*
X82400Y85566D01*
X82367Y85400D01*
Y58580D01*
X77244Y53456D01*
X77187Y53372D01*
X77150Y53316D01*
X77117Y53150D01*
Y52445D01*
X77096Y52436D01*
X76908Y52292D01*
X76864Y52234D01*
X76737D01*
X76692Y52292D01*
X76504Y52436D01*
X76483Y52445D01*
Y52971D01*
X81856Y58344D01*
X81950Y58484D01*
X81983Y58650D01*
Y65650D01*
X81950Y65816D01*
X81856Y65956D01*
X75733Y72080D01*
Y72617D01*
X75993Y72634D01*
X76675Y72770D01*
X77333Y72993D01*
X77956Y73300D01*
X78533Y73686D01*
X79056Y74144D01*
X79514Y74667D01*
X79900Y75244D01*
X80207Y75867D01*
X80430Y76525D01*
X80566Y77207D01*
X80611Y77900D01*
Y92900D01*
X80566Y93593D01*
X80430Y94275D01*
X80207Y94933D01*
X79900Y95556D01*
X79514Y96133D01*
X79056Y96656D01*
X78533Y97114D01*
X77956Y97500D01*
X77333Y97807D01*
X76675Y98030D01*
X75993Y98166D01*
X75300Y98211D01*
X74607Y98166D01*
X73925Y98030D01*
X73267Y97807D01*
X72644Y97500D01*
X72067Y97114D01*
X71544Y96656D01*
X71086Y96133D01*
X70700Y95556D01*
X70393Y94933D01*
X70170Y94275D01*
X70034Y93593D01*
X69989Y92900D01*
Y77900D01*
X70034Y77207D01*
X70170Y76525D01*
X70393Y75867D01*
X70700Y75244D01*
X71086Y74667D01*
X71544Y74144D01*
X72067Y73686D01*
X72644Y73300D01*
X73267Y72993D01*
X73925Y72770D01*
X74607Y72634D01*
X74867Y72617D01*
Y71900D01*
X74900Y71734D01*
X74994Y71594D01*
X81117Y65471D01*
Y58830D01*
X75744Y53456D01*
X75650Y53316D01*
X75617Y53150D01*
Y52445D01*
X75596Y52436D01*
X75408Y52292D01*
X75363Y52234D01*
X75236D01*
X75192Y52292D01*
X75004Y52436D01*
X74983Y52445D01*
Y52971D01*
X75606Y53594D01*
X75700Y53734D01*
X75733Y53900D01*
Y57617D01*
X75993Y57634D01*
X76675Y57770D01*
X77333Y57993D01*
X77956Y58300D01*
X78533Y58686D01*
X79056Y59144D01*
X79514Y59667D01*
X79900Y60244D01*
X80207Y60867D01*
X80430Y61525D01*
X80566Y62207D01*
X80611Y62900D01*
X80566Y63593D01*
X80430Y64275D01*
X80207Y64933D01*
X79900Y65556D01*
X79514Y66133D01*
X79056Y66656D01*
X78533Y67114D01*
X77956Y67500D01*
X77333Y67807D01*
X76675Y68030D01*
X75993Y68166D01*
X75300Y68211D01*
X74607Y68166D01*
X73925Y68030D01*
X73267Y67807D01*
X72644Y67500D01*
X72067Y67114D01*
X71544Y66656D01*
X71086Y66133D01*
X70700Y65556D01*
X70393Y64933D01*
X70170Y64275D01*
X70034Y63593D01*
X69989Y62900D01*
X70034Y62207D01*
X70170Y61525D01*
X70393Y60867D01*
X70700Y60244D01*
X71086Y59667D01*
X71544Y59144D01*
X72067Y58686D01*
X72644Y58300D01*
X73267Y57993D01*
X73925Y57770D01*
X74607Y57634D01*
X74867Y57617D01*
Y54080D01*
X74244Y53456D01*
X74150Y53316D01*
X74117Y53150D01*
Y52445D01*
X74096Y52436D01*
X73908Y52292D01*
X73863Y52234D01*
X73736D01*
X73692Y52292D01*
X73504Y52436D01*
X73483Y52445D01*
Y53150D01*
X73450Y53316D01*
X73413Y53372D01*
X73356Y53456D01*
X68233Y58580D01*
Y85400D01*
X68200Y85566D01*
X68106Y85706D01*
X64342Y89471D01*
X64514Y89667D01*
X64900Y90244D01*
X65207Y90867D01*
X65430Y91525D01*
X65566Y92207D01*
X65611Y92900D01*
X65566Y93593D01*
X65430Y94275D01*
X65207Y94933D01*
X64900Y95556D01*
X64514Y96133D01*
X64056Y96656D01*
X63533Y97114D01*
X62956Y97500D01*
X62333Y97807D01*
X61675Y98030D01*
X60993Y98166D01*
X60300Y98211D01*
X59607Y98166D01*
X58925Y98030D01*
X58267Y97807D01*
X57644Y97500D01*
X57067Y97114D01*
X56544Y96656D01*
X56086Y96133D01*
X55700Y95556D01*
X55393Y94933D01*
X55170Y94275D01*
X55034Y93593D01*
X54989Y92900D01*
X55034Y92207D01*
X55170Y91525D01*
X55393Y90867D01*
X55700Y90244D01*
X56086Y89667D01*
X56544Y89144D01*
X57067Y88686D01*
X57644Y88300D01*
X58267Y87993D01*
X58925Y87770D01*
X59607Y87634D01*
X60300Y87589D01*
X60993Y87634D01*
X61675Y87770D01*
X62333Y87993D01*
X62956Y88300D01*
X63533Y88686D01*
X63729Y88858D01*
X67367Y85221D01*
Y58400D01*
X67400Y58234D01*
X67494Y58094D01*
X72617Y52971D01*
Y52445D01*
X72596Y52436D01*
X72408Y52292D01*
X72363Y52234D01*
X72236D01*
X72192Y52292D01*
X72004Y52436D01*
X71983Y52445D01*
Y53150D01*
X71950Y53316D01*
X71856Y53456D01*
X66983Y58329D01*
Y71650D01*
X66950Y71816D01*
X66913Y71872D01*
X66856Y71956D01*
X64342Y74471D01*
X64514Y74667D01*
X64900Y75244D01*
X65207Y75867D01*
X65430Y76525D01*
X65566Y77207D01*
X65611Y77900D01*
X65566Y78593D01*
X65430Y79275D01*
X65207Y79933D01*
X64900Y80556D01*
X64514Y81133D01*
X64056Y81656D01*
X63533Y82114D01*
X62956Y82500D01*
X62333Y82807D01*
X61675Y83030D01*
X60993Y83166D01*
X60300Y83211D01*
X59607Y83166D01*
X58925Y83030D01*
X58267Y82807D01*
X57644Y82500D01*
X57067Y82114D01*
X56544Y81656D01*
X56086Y81133D01*
X55700Y80556D01*
X55393Y79933D01*
X55170Y79275D01*
X55034Y78593D01*
X54989Y77900D01*
X55034Y77207D01*
X55170Y76525D01*
X55393Y75867D01*
X55700Y75244D01*
X56086Y74667D01*
X56544Y74144D01*
X57067Y73686D01*
X57644Y73300D01*
X58267Y72993D01*
X58925Y72770D01*
X59607Y72634D01*
X60300Y72589D01*
X60993Y72634D01*
X61675Y72770D01*
X62333Y72993D01*
X62956Y73300D01*
X63533Y73686D01*
X63729Y73858D01*
X66117Y71471D01*
Y58150D01*
X66150Y57984D01*
X66244Y57844D01*
X71117Y52971D01*
Y52445D01*
X71096Y52436D01*
X70908Y52292D01*
X70863Y52234D01*
X70736D01*
X70692Y52292D01*
X70504Y52436D01*
X70483Y52445D01*
Y53150D01*
X70450Y53316D01*
X70356Y53456D01*
X64342Y59471D01*
X64514Y59667D01*
X64900Y60244D01*
X65207Y60867D01*
X65430Y61525D01*
X65566Y62207D01*
X65611Y62900D01*
X65566Y63593D01*
X65430Y64275D01*
X65207Y64933D01*
X64900Y65556D01*
X64514Y66133D01*
X64056Y66656D01*
X63533Y67114D01*
X62956Y67500D01*
X62333Y67807D01*
X61675Y68030D01*
X60993Y68166D01*
X60300Y68211D01*
X59607Y68166D01*
X58925Y68030D01*
X58267Y67807D01*
X57644Y67500D01*
X57067Y67114D01*
X56544Y66656D01*
X56086Y66133D01*
X55700Y65556D01*
X55393Y64933D01*
X55170Y64275D01*
X55034Y63593D01*
X54989Y62900D01*
X55034Y62207D01*
X55170Y61525D01*
X55393Y60867D01*
X55700Y60244D01*
X56086Y59667D01*
X56544Y59144D01*
X57067Y58686D01*
X57644Y58300D01*
X58267Y57993D01*
X58925Y57770D01*
X59607Y57634D01*
X60300Y57589D01*
X60993Y57634D01*
X61675Y57770D01*
X62333Y57993D01*
X62956Y58300D01*
X63533Y58686D01*
X63729Y58858D01*
X69617Y52971D01*
Y52445D01*
X69596Y52436D01*
X69408Y52292D01*
X69264Y52104D01*
X69173Y51885D01*
X69142Y51650D01*
X69157Y51535D01*
X69037Y51476D01*
X64306Y56206D01*
X64166Y56300D01*
X64000Y56333D01*
X59633D01*
X59617Y56372D01*
X59467Y56567D01*
X59272Y56717D01*
X59044Y56811D01*
X58800Y56843D01*
X58556Y56811D01*
X58328Y56717D01*
X58133Y56567D01*
X57983Y56372D01*
X57967Y56333D01*
X55701D01*
X55675Y56460D01*
X55730Y56483D01*
X55949Y56651D01*
X56117Y56870D01*
X56223Y57126D01*
X56259Y57400D01*
X56223Y57674D01*
X56117Y57930D01*
X55949Y58149D01*
X55730Y58317D01*
X55474Y58423D01*
X55200Y58459D01*
X54926Y58423D01*
X54670Y58317D01*
X54451Y58149D01*
X54283Y57930D01*
X54177Y57674D01*
X54141Y57400D01*
X54163Y57229D01*
X54043Y57170D01*
X53933Y57280D01*
Y82421D01*
X56018Y84505D01*
X56056Y84489D01*
X56300Y84457D01*
X56544Y84489D01*
X56772Y84583D01*
X56967Y84733D01*
X57117Y84928D01*
X57211Y85156D01*
X57243Y85400D01*
X57211Y85644D01*
X57117Y85872D01*
X56967Y86067D01*
X56772Y86217D01*
X56544Y86311D01*
X56300Y86343D01*
X56056Y86311D01*
X55828Y86217D01*
X55633Y86067D01*
X55483Y85872D01*
X55389Y85644D01*
X55357Y85400D01*
X55389Y85156D01*
X55405Y85118D01*
X53194Y82906D01*
X53100Y82766D01*
X53067Y82600D01*
Y57100D01*
X53100Y56934D01*
X53194Y56794D01*
X54394Y55594D01*
X54534Y55500D01*
X54700Y55467D01*
X57967D01*
X57983Y55429D01*
X58133Y55233D01*
X58328Y55083D01*
X58556Y54989D01*
X58800Y54957D01*
X59044Y54989D01*
X59272Y55083D01*
X59467Y55233D01*
X59617Y55429D01*
X59633Y55467D01*
X63820D01*
X68734Y50553D01*
X68686Y50435D01*
X57500D01*
X57473Y50430D01*
X56708Y50473D01*
X55926Y50606D01*
X55164Y50825D01*
X54432Y51129D01*
X53738Y51512D01*
X53091Y51971D01*
X52500Y52500D01*
X51971Y53091D01*
X51512Y53738D01*
X51129Y54432D01*
X50825Y55164D01*
X50606Y55926D01*
X50473Y56708D01*
X50430Y57473D01*
X50435Y57500D01*
Y128100D01*
X50430Y128127D01*
X50473Y128892D01*
X50606Y129674D01*
X50825Y130436D01*
X51129Y131168D01*
X51512Y131862D01*
X51971Y132509D01*
X52500Y133100D01*
X53091Y133629D01*
X53738Y134088D01*
X54432Y134471D01*
X55164Y134775D01*
X55926Y134994D01*
X56708Y135127D01*
X57473Y135170D01*
X57500Y135165D01*
D02*
G37*
G36*
X101000Y55914D02*
Y49600D01*
X94686D01*
X94675Y49727D01*
X94867Y49760D01*
X95722Y50006D01*
X96545Y50347D01*
X97324Y50777D01*
X98050Y51293D01*
X98714Y51886D01*
X99307Y52550D01*
X99823Y53276D01*
X100253Y54055D01*
X100594Y54878D01*
X100840Y55733D01*
X100873Y55925D01*
X101000Y55914D01*
D02*
G37*
G36*
Y129686D02*
X100873Y129675D01*
X100840Y129867D01*
X100594Y130722D01*
X100253Y131545D01*
X99823Y132324D01*
X99307Y133050D01*
X98714Y133714D01*
X98050Y134307D01*
X97324Y134823D01*
X96545Y135253D01*
X95722Y135594D01*
X94867Y135840D01*
X94675Y135873D01*
X94686Y136000D01*
X101000D01*
Y129686D01*
D02*
G37*
G36*
X49760Y55733D02*
X50006Y54878D01*
X50347Y54055D01*
X50777Y53276D01*
X51293Y52550D01*
X51886Y51886D01*
X52550Y51293D01*
X53276Y50777D01*
X54055Y50347D01*
X54878Y50006D01*
X55733Y49760D01*
X55925Y49727D01*
X55914Y49600D01*
X49600D01*
X49593Y55958D01*
X49720Y55969D01*
X49760Y55733D01*
D02*
G37*
%LPC*%
G36*
X74030Y125953D02*
X73786Y125921D01*
X73558Y125827D01*
X73363Y125677D01*
X73213Y125482D01*
X73119Y125254D01*
X73087Y125010D01*
X73119Y124766D01*
X73213Y124538D01*
X73363Y124343D01*
X73558Y124193D01*
X73786Y124099D01*
X74030Y124067D01*
X74274Y124099D01*
X74502Y124193D01*
X74697Y124343D01*
X74847Y124538D01*
X74941Y124766D01*
X74973Y125010D01*
X74941Y125254D01*
X74847Y125482D01*
X74697Y125677D01*
X74502Y125827D01*
X74274Y125921D01*
X74030Y125953D01*
D02*
G37*
G36*
X79110Y125943D02*
X78866Y125911D01*
X78638Y125817D01*
X78443Y125667D01*
X78293Y125472D01*
X78199Y125244D01*
X78167Y125000D01*
X78199Y124756D01*
X78293Y124528D01*
X78443Y124333D01*
X78638Y124183D01*
X78866Y124089D01*
X79110Y124057D01*
X79354Y124089D01*
X79582Y124183D01*
X79777Y124333D01*
X79927Y124528D01*
X80021Y124756D01*
X80053Y125000D01*
X80021Y125244D01*
X79927Y125472D01*
X79777Y125667D01*
X79582Y125817D01*
X79354Y125911D01*
X79110Y125943D01*
D02*
G37*
G36*
X55200Y99159D02*
X54926Y99123D01*
X54670Y99017D01*
X54451Y98849D01*
X54283Y98630D01*
X54177Y98374D01*
X54141Y98100D01*
X54177Y97826D01*
X54283Y97571D01*
X54451Y97351D01*
X54670Y97183D01*
X54926Y97077D01*
X55200Y97041D01*
X55474Y97077D01*
X55729Y97183D01*
X55949Y97351D01*
X56117Y97571D01*
X56223Y97826D01*
X56259Y98100D01*
X56223Y98374D01*
X56117Y98630D01*
X55949Y98849D01*
X55729Y99017D01*
X55474Y99123D01*
X55200Y99159D01*
D02*
G37*
G36*
X86390Y121709D02*
Y121705D01*
X86390Y121705D01*
X64190D01*
X64190Y121705D01*
Y121709D01*
X63817Y121660D01*
X63470Y121516D01*
X63172Y121288D01*
X62944Y120990D01*
X62800Y120643D01*
X62751Y120270D01*
X62755D01*
X62755Y120270D01*
Y109670D01*
X62755Y109670D01*
X62751D01*
X62800Y109297D01*
X62944Y108950D01*
X63172Y108652D01*
X63470Y108424D01*
X63817Y108280D01*
X64190Y108231D01*
Y108231D01*
X64190Y108235D01*
X86390D01*
X86390Y108235D01*
Y108231D01*
X86763Y108280D01*
X87110Y108424D01*
X87408Y108652D01*
X87636Y108950D01*
X87780Y109297D01*
X87829Y109670D01*
X87825D01*
Y120270D01*
X87825Y120270D01*
X87829D01*
X87780Y120643D01*
X87636Y120990D01*
X87408Y121288D01*
X87110Y121516D01*
X86763Y121660D01*
X86390Y121709D01*
D02*
G37*
G36*
X76570Y125943D02*
X76326Y125911D01*
X76098Y125817D01*
X75903Y125667D01*
X75753Y125472D01*
X75659Y125244D01*
X75627Y125000D01*
X75659Y124756D01*
X75753Y124528D01*
X75903Y124333D01*
X76098Y124183D01*
X76326Y124089D01*
X76570Y124057D01*
X76814Y124089D01*
X77042Y124183D01*
X77237Y124333D01*
X77387Y124528D01*
X77481Y124756D01*
X77513Y125000D01*
X77481Y125244D01*
X77387Y125472D01*
X77237Y125667D01*
X77042Y125817D01*
X76814Y125911D01*
X76570Y125943D01*
D02*
G37*
G36*
X71617Y125880D02*
Y125127D01*
X72370D01*
X72356Y125232D01*
X72267Y125448D01*
X72124Y125634D01*
X71938Y125777D01*
X71722Y125866D01*
X71617Y125880D01*
D02*
G37*
G36*
X55200Y129159D02*
X54926Y129123D01*
X54670Y129017D01*
X54451Y128849D01*
X54283Y128630D01*
X54177Y128374D01*
X54141Y128100D01*
X54177Y127826D01*
X54283Y127570D01*
X54451Y127351D01*
X54670Y127183D01*
X54926Y127077D01*
X55200Y127041D01*
X55474Y127077D01*
X55730Y127183D01*
X55949Y127351D01*
X56117Y127570D01*
X56223Y127826D01*
X56259Y128100D01*
X56223Y128374D01*
X56117Y128630D01*
X55949Y128849D01*
X55730Y129017D01*
X55474Y129123D01*
X55200Y129159D01*
D02*
G37*
G36*
X71363Y125880D02*
X71258Y125866D01*
X71042Y125777D01*
X70856Y125634D01*
X70713Y125448D01*
X70624Y125232D01*
X70610Y125127D01*
X71363D01*
Y125880D01*
D02*
G37*
G36*
Y124873D02*
X70610D01*
X70624Y124768D01*
X70713Y124552D01*
X70856Y124366D01*
X71042Y124223D01*
X71258Y124134D01*
X71363Y124120D01*
Y124873D01*
D02*
G37*
G36*
X72370D02*
X71617D01*
Y124120D01*
X71722Y124134D01*
X71938Y124223D01*
X72124Y124366D01*
X72267Y124552D01*
X72356Y124768D01*
X72370Y124873D01*
D02*
G37*
G36*
X88173Y86280D02*
X88068Y86266D01*
X87852Y86177D01*
X87666Y86034D01*
X87523Y85848D01*
X87434Y85632D01*
X87420Y85527D01*
X88173D01*
Y86280D01*
D02*
G37*
G36*
X88427D02*
Y85527D01*
X89180D01*
X89166Y85632D01*
X89077Y85848D01*
X88934Y86034D01*
X88748Y86177D01*
X88532Y86266D01*
X88427Y86280D01*
D02*
G37*
G36*
X89180Y85273D02*
X88427D01*
Y84520D01*
X88532Y84534D01*
X88748Y84623D01*
X88934Y84766D01*
X89077Y84952D01*
X89166Y85168D01*
X89180Y85273D01*
D02*
G37*
G36*
X95400Y58459D02*
X95126Y58423D01*
X94870Y58317D01*
X94651Y58149D01*
X94483Y57930D01*
X94377Y57674D01*
X94341Y57400D01*
X94377Y57126D01*
X94483Y56870D01*
X94651Y56651D01*
X94870Y56483D01*
X95126Y56377D01*
X95400Y56341D01*
X95674Y56377D01*
X95930Y56483D01*
X96149Y56651D01*
X96317Y56870D01*
X96423Y57126D01*
X96459Y57400D01*
X96423Y57674D01*
X96317Y57930D01*
X96149Y58149D01*
X95930Y58317D01*
X95674Y58423D01*
X95400Y58459D01*
D02*
G37*
G36*
X88173Y85273D02*
X87420D01*
X87434Y85168D01*
X87523Y84952D01*
X87666Y84766D01*
X87852Y84623D01*
X88068Y84534D01*
X88173Y84520D01*
Y85273D01*
D02*
G37*
G36*
X82700Y100758D02*
X82465Y100727D01*
X82246Y100636D01*
X82058Y100492D01*
X81914Y100304D01*
X81823Y100085D01*
X81792Y99850D01*
X81823Y99615D01*
X81914Y99396D01*
X82058Y99208D01*
X82246Y99064D01*
X82267Y99055D01*
Y98145D01*
X82246Y98136D01*
X82058Y97992D01*
X81914Y97804D01*
X81823Y97585D01*
X81792Y97350D01*
X81823Y97115D01*
X81914Y96896D01*
X82058Y96708D01*
X82246Y96564D01*
X82465Y96473D01*
X82700Y96442D01*
X82935Y96473D01*
X83154Y96564D01*
X83342Y96708D01*
X83486Y96896D01*
X83577Y97115D01*
X83608Y97350D01*
X83577Y97585D01*
X83486Y97804D01*
X83342Y97992D01*
X83154Y98136D01*
X83133Y98145D01*
Y99055D01*
X83154Y99064D01*
X83342Y99208D01*
X83486Y99396D01*
X83577Y99615D01*
X83608Y99850D01*
X83577Y100085D01*
X83486Y100304D01*
X83342Y100492D01*
X83154Y100636D01*
X82935Y100727D01*
X82700Y100758D01*
D02*
G37*
G36*
X95400Y99159D02*
X95126Y99123D01*
X94870Y99017D01*
X94651Y98849D01*
X94483Y98630D01*
X94377Y98374D01*
X94341Y98100D01*
X94377Y97826D01*
X94483Y97570D01*
X94651Y97351D01*
X94870Y97183D01*
X95126Y97077D01*
X95400Y97041D01*
X95674Y97077D01*
X95930Y97183D01*
X96149Y97351D01*
X96317Y97570D01*
X96423Y97826D01*
X96459Y98100D01*
X96423Y98374D01*
X96317Y98630D01*
X96149Y98849D01*
X95930Y99017D01*
X95674Y99123D01*
X95400Y99159D01*
D02*
G37*
G36*
X67700Y95293D02*
X67456Y95261D01*
X67228Y95167D01*
X67033Y95017D01*
X66883Y94822D01*
X66789Y94594D01*
X66757Y94350D01*
X66789Y94106D01*
X66883Y93878D01*
X67033Y93683D01*
X67228Y93533D01*
X67456Y93439D01*
X67700Y93407D01*
X67944Y93439D01*
X68172Y93533D01*
X68367Y93683D01*
X68517Y93878D01*
X68611Y94106D01*
X68643Y94350D01*
X68611Y94594D01*
X68517Y94822D01*
X68367Y95017D01*
X68172Y95167D01*
X67944Y95261D01*
X67700Y95293D01*
D02*
G37*
G36*
Y92793D02*
X67456Y92761D01*
X67228Y92667D01*
X67033Y92517D01*
X66883Y92322D01*
X66789Y92094D01*
X66757Y91850D01*
X66789Y91606D01*
X66883Y91378D01*
X67033Y91183D01*
X67228Y91033D01*
X67456Y90939D01*
X67700Y90907D01*
X67944Y90939D01*
X68172Y91033D01*
X68367Y91183D01*
X68517Y91378D01*
X68611Y91606D01*
X68643Y91850D01*
X68611Y92094D01*
X68517Y92322D01*
X68367Y92517D01*
X68172Y92667D01*
X67944Y92761D01*
X67700Y92793D01*
D02*
G37*
G36*
X93500Y110108D02*
X93265Y110077D01*
X93046Y109986D01*
X92858Y109842D01*
X92714Y109654D01*
X92623Y109435D01*
X92592Y109200D01*
X92623Y108965D01*
X92714Y108746D01*
X92858Y108558D01*
X93046Y108414D01*
X93067Y108405D01*
Y105467D01*
X82394Y94794D01*
X82300Y94653D01*
X82267Y94487D01*
Y92645D01*
X82246Y92636D01*
X82058Y92492D01*
X81914Y92304D01*
X81823Y92085D01*
X81792Y91850D01*
X81823Y91615D01*
X81914Y91396D01*
X82058Y91208D01*
X82246Y91064D01*
X82465Y90973D01*
X82700Y90942D01*
X82935Y90973D01*
X83154Y91064D01*
X83342Y91208D01*
X83486Y91396D01*
X83577Y91615D01*
X83608Y91850D01*
X83577Y92085D01*
X83486Y92304D01*
X83342Y92492D01*
X83154Y92636D01*
X83133Y92645D01*
Y94308D01*
X93806Y104981D01*
X93900Y105121D01*
X93933Y105287D01*
Y108405D01*
X93954Y108414D01*
X94142Y108558D01*
X94286Y108746D01*
X94377Y108965D01*
X94408Y109200D01*
X94377Y109435D01*
X94286Y109654D01*
X94142Y109842D01*
X93954Y109986D01*
X93735Y110077D01*
X93500Y110108D01*
D02*
G37*
G36*
X87610Y129383D02*
X86857D01*
Y128630D01*
X86962Y128644D01*
X87178Y128733D01*
X87364Y128876D01*
X87507Y129062D01*
X87596Y129278D01*
X87610Y129383D01*
D02*
G37*
G36*
X63743Y130390D02*
X63638Y130376D01*
X63422Y130287D01*
X63236Y130144D01*
X63093Y129958D01*
X63004Y129742D01*
X62990Y129637D01*
X63743D01*
Y130390D01*
D02*
G37*
G36*
X63997D02*
Y129637D01*
X64750D01*
X64736Y129742D01*
X64647Y129958D01*
X64504Y130144D01*
X64318Y130287D01*
X64102Y130376D01*
X63997Y130390D01*
D02*
G37*
G36*
X84063Y129383D02*
X83310D01*
X83324Y129278D01*
X83413Y129062D01*
X83556Y128876D01*
X83742Y128733D01*
X83958Y128644D01*
X84063Y128630D01*
Y129383D01*
D02*
G37*
G36*
X85070D02*
X84317D01*
Y128630D01*
X84422Y128644D01*
X84638Y128733D01*
X84824Y128876D01*
X84967Y129062D01*
X85056Y129278D01*
X85070Y129383D01*
D02*
G37*
G36*
X86603D02*
X85850D01*
X85864Y129278D01*
X85953Y129062D01*
X86096Y128876D01*
X86282Y128733D01*
X86498Y128644D01*
X86603Y128630D01*
Y129383D01*
D02*
G37*
G36*
X84317Y130390D02*
Y129637D01*
X85070D01*
X85056Y129742D01*
X84967Y129958D01*
X84824Y130144D01*
X84638Y130287D01*
X84422Y130376D01*
X84317Y130390D01*
D02*
G37*
G36*
X86603D02*
X86498Y130376D01*
X86282Y130287D01*
X86096Y130144D01*
X85953Y129958D01*
X85864Y129742D01*
X85850Y129637D01*
X86603D01*
Y130390D01*
D02*
G37*
G36*
X86857D02*
Y129637D01*
X87610D01*
X87596Y129742D01*
X87507Y129958D01*
X87364Y130144D01*
X87178Y130287D01*
X86962Y130376D01*
X86857Y130390D01*
D02*
G37*
G36*
X66283D02*
X66178Y130376D01*
X65962Y130287D01*
X65776Y130144D01*
X65633Y129958D01*
X65544Y129742D01*
X65530Y129637D01*
X66283D01*
Y130390D01*
D02*
G37*
G36*
X66537D02*
Y129637D01*
X67290D01*
X67276Y129742D01*
X67187Y129958D01*
X67044Y130144D01*
X66858Y130287D01*
X66642Y130376D01*
X66537Y130390D01*
D02*
G37*
G36*
X84063D02*
X83958Y130376D01*
X83742Y130287D01*
X83556Y130144D01*
X83413Y129958D01*
X83324Y129742D01*
X83310Y129637D01*
X84063D01*
Y130390D01*
D02*
G37*
G36*
X74030Y130453D02*
X73786Y130421D01*
X73558Y130327D01*
X73363Y130177D01*
X73213Y129982D01*
X73119Y129754D01*
X73087Y129510D01*
X73119Y129266D01*
X73213Y129038D01*
X73363Y128843D01*
X73558Y128693D01*
X73786Y128599D01*
X74030Y128567D01*
X74274Y128599D01*
X74502Y128693D01*
X74697Y128843D01*
X74847Y129038D01*
X74941Y129266D01*
X74973Y129510D01*
X74941Y129754D01*
X74847Y129982D01*
X74697Y130177D01*
X74502Y130327D01*
X74274Y130421D01*
X74030Y130453D01*
D02*
G37*
G36*
X76570D02*
X76326Y130421D01*
X76098Y130327D01*
X75903Y130177D01*
X75753Y129982D01*
X75659Y129754D01*
X75627Y129510D01*
X75659Y129266D01*
X75753Y129038D01*
X75903Y128843D01*
X76098Y128693D01*
X76326Y128599D01*
X76570Y128567D01*
X76814Y128599D01*
X77042Y128693D01*
X77237Y128843D01*
X77387Y129038D01*
X77481Y129266D01*
X77513Y129510D01*
X77481Y129754D01*
X77387Y129982D01*
X77237Y130177D01*
X77042Y130327D01*
X76814Y130421D01*
X76570Y130453D01*
D02*
G37*
G36*
X79110D02*
X78866Y130421D01*
X78638Y130327D01*
X78443Y130177D01*
X78293Y129982D01*
X78199Y129754D01*
X78167Y129510D01*
X78199Y129266D01*
X78293Y129038D01*
X78443Y128843D01*
X78638Y128693D01*
X78866Y128599D01*
X79110Y128567D01*
X79354Y128599D01*
X79582Y128693D01*
X79777Y128843D01*
X79927Y129038D01*
X80021Y129266D01*
X80053Y129510D01*
X80021Y129754D01*
X79927Y129982D01*
X79777Y130177D01*
X79582Y130327D01*
X79354Y130421D01*
X79110Y130453D01*
D02*
G37*
G36*
X95400Y129159D02*
X95126Y129123D01*
X94870Y129017D01*
X94651Y128849D01*
X94483Y128630D01*
X94377Y128374D01*
X94341Y128100D01*
X94377Y127826D01*
X94483Y127570D01*
X94651Y127351D01*
X94870Y127183D01*
X95126Y127077D01*
X95400Y127041D01*
X95674Y127077D01*
X95930Y127183D01*
X96149Y127351D01*
X96317Y127570D01*
X96423Y127826D01*
X96459Y128100D01*
X96423Y128374D01*
X96317Y128630D01*
X96149Y128849D01*
X95930Y129017D01*
X95674Y129123D01*
X95400Y129159D01*
D02*
G37*
G36*
X68950Y130453D02*
X68706Y130421D01*
X68478Y130327D01*
X68283Y130177D01*
X68133Y129982D01*
X68039Y129754D01*
X68007Y129510D01*
X68039Y129266D01*
X68133Y129038D01*
X68283Y128843D01*
X68478Y128693D01*
X68706Y128599D01*
X68950Y128567D01*
X69194Y128599D01*
X69422Y128693D01*
X69617Y128843D01*
X69767Y129038D01*
X69861Y129266D01*
X69893Y129510D01*
X69861Y129754D01*
X69767Y129982D01*
X69617Y130177D01*
X69422Y130327D01*
X69194Y130421D01*
X68950Y130453D01*
D02*
G37*
G36*
X71490D02*
X71246Y130421D01*
X71018Y130327D01*
X70823Y130177D01*
X70673Y129982D01*
X70579Y129754D01*
X70547Y129510D01*
X70579Y129266D01*
X70673Y129038D01*
X70823Y128843D01*
X71018Y128693D01*
X71246Y128599D01*
X71490Y128567D01*
X71734Y128599D01*
X71962Y128693D01*
X72157Y128843D01*
X72307Y129038D01*
X72401Y129266D01*
X72433Y129510D01*
X72401Y129754D01*
X72307Y129982D01*
X72157Y130177D01*
X71962Y130327D01*
X71734Y130421D01*
X71490Y130453D01*
D02*
G37*
G36*
X66283Y129383D02*
X65530D01*
X65544Y129278D01*
X65633Y129062D01*
X65776Y128876D01*
X65962Y128733D01*
X66178Y128644D01*
X66283Y128630D01*
Y129383D01*
D02*
G37*
G36*
X67290D02*
X66537D01*
Y128630D01*
X66642Y128644D01*
X66858Y128733D01*
X67044Y128876D01*
X67187Y129062D01*
X67276Y129278D01*
X67290Y129383D01*
D02*
G37*
G36*
X64750D02*
X63997D01*
Y128630D01*
X64102Y128644D01*
X64318Y128733D01*
X64504Y128876D01*
X64647Y129062D01*
X64736Y129278D01*
X64750Y129383D01*
D02*
G37*
G36*
X81650Y130453D02*
X81406Y130421D01*
X81178Y130327D01*
X80983Y130177D01*
X80833Y129982D01*
X80739Y129754D01*
X80707Y129510D01*
X80739Y129266D01*
X80833Y129038D01*
X80983Y128843D01*
X81178Y128693D01*
X81406Y128599D01*
X81650Y128567D01*
X81894Y128599D01*
X82122Y128693D01*
X82317Y128843D01*
X82467Y129038D01*
X82561Y129266D01*
X82593Y129510D01*
X82561Y129754D01*
X82467Y129982D01*
X82317Y130177D01*
X82122Y130327D01*
X81894Y130421D01*
X81650Y130453D01*
D02*
G37*
G36*
X63743Y129383D02*
X62990D01*
X63004Y129278D01*
X63093Y129062D01*
X63236Y128876D01*
X63422Y128733D01*
X63638Y128644D01*
X63743Y128630D01*
Y129383D01*
D02*
G37*
%LPD*%
G36*
X64190Y120835D02*
X86390D01*
X86407Y120838D01*
X86609Y120798D01*
X86794Y120674D01*
X86918Y120489D01*
X86937Y120390D01*
X86938Y120389D01*
X86955Y120270D01*
D01*
Y120270D01*
X86955D01*
X86955Y120145D01*
Y120145D01*
Y120143D01*
Y109797D01*
Y109795D01*
X86955Y109670D01*
D01*
X86938Y109551D01*
X86937Y109550D01*
X86918Y109451D01*
X86794Y109266D01*
X86609Y109142D01*
X86407Y109102D01*
X86390Y109105D01*
X64312D01*
X64190Y109105D01*
X64190Y109105D01*
X64190Y109105D01*
Y109105D01*
X64066Y109123D01*
X63971Y109142D01*
X63786Y109266D01*
X63662Y109451D01*
X63622Y109653D01*
X63625Y109670D01*
Y120270D01*
X63622Y120287D01*
X63662Y120489D01*
X63786Y120674D01*
X63971Y120798D01*
X64173Y120838D01*
X64190Y120835D01*
D02*
G37*
D10*
X60300Y62900D02*
D03*
X75300D02*
D03*
X90300D02*
D03*
X90300Y77900D02*
D03*
X90300Y92900D02*
D03*
X60300D02*
D03*
Y77900D02*
D03*
D11*
X75300Y85400D02*
D03*
D12*
X54700Y55900D02*
X58800D01*
X64000D01*
X69300Y50600D01*
X81300D01*
X86600Y55900D01*
X91800D01*
X90300Y62900D02*
X80550Y53150D01*
Y51650D01*
X79050D02*
Y53150D01*
X84050Y58150D01*
Y71650D01*
X90300Y77900D01*
X82800Y85400D02*
X90300Y92900D01*
X82700Y99850D02*
Y97350D01*
X82700Y94487D02*
X93500Y105287D01*
Y109200D01*
X82700Y94487D02*
Y91850D01*
X82800Y85400D02*
Y58400D01*
X77550Y53150D01*
Y51650D01*
X76050D02*
Y53150D01*
X81550Y58650D01*
Y65650D01*
X75300Y71900D01*
Y85400D01*
X67800D02*
Y58400D01*
X73050Y53150D01*
Y51650D01*
X74550D02*
Y53150D01*
X75300Y53900D01*
Y62900D01*
X71550Y53150D02*
X66550Y58150D01*
Y71650D01*
X60300Y77900D01*
X56300Y85400D02*
X53500Y82600D01*
Y57100D01*
X54700Y55900D01*
X60300Y62900D02*
X70050Y53150D01*
Y51650D01*
X71550D02*
Y53150D01*
X67800Y85400D02*
X60300Y92900D01*
D13*
X58800Y55900D02*
D03*
X88300Y85400D02*
D03*
X67700Y94350D02*
D03*
Y91850D02*
D03*
X56300Y85400D02*
D03*
X91800Y55900D02*
D03*
X79110Y125000D02*
D03*
X81650Y129510D02*
D03*
X84190D02*
D03*
X86730D02*
D03*
X79110D02*
D03*
X76570D02*
D03*
Y125000D02*
D03*
X74030Y129510D02*
D03*
Y125010D02*
D03*
X71490Y129510D02*
D03*
Y125000D02*
D03*
X68950Y129510D02*
D03*
X66410D02*
D03*
X63870D02*
D03*
D14*
X70050Y51650D02*
D03*
X71550D02*
D03*
X73050D02*
D03*
X74550D02*
D03*
X76050D02*
D03*
X77550D02*
D03*
X79050D02*
D03*
X80550D02*
D03*
X82700Y91850D02*
D03*
X82700Y97350D02*
D03*
Y99850D02*
D03*
X93500Y109200D02*
D03*
M02*
